<?xml version="1.0" standalone="no"?>
<!DOCTYPE svg PUBLIC "-//W3C//DTD SVG 1.1//EN" "http://www.w3.org/Graphics/SVG/1.1/DTD/svg11.dtd" >
<svg xmlns="http://www.w3.org/2000/svg">
<metadata>Generated by IcoMoon</metadata>
<defs>
<font id="icons" horiz-adv-x="1024">
<font-face units-per-em="1024" ascent="960" descent="-64" />
<missing-glyph horiz-adv-x="1024" />
<glyph unicode="&#x20;" horiz-adv-x="512" d="" />
<glyph unicode="&#xe024;" glyph-name="high-quality" d="M618 362.667v128h86v-128h-86zM768 340.667v172c0 24-18 42-42 42h-128c-24 0-44-18-44-42v-172c0-24 20-42 44-42h32v-64h64v64h32c24 0 42 18 42 42zM470 298.667v256h-64v-106h-86v106h-64v-256h64v86h86v-86h64zM810 768.667c46 0 86-40 86-86v-512c0-46-40-86-86-86h-596c-48 0-86 40-86 86v512c0 46 38 86 86 86h596z" />
<glyph unicode="&#xe038;" glyph-name="play" d="M426 234.667l256 192-256 192v-384zM512 852.667c236 0 426-190 426-426s-190-426-426-426-426 190-426 426 190 426 426 426z" />
<glyph unicode="&#xe0e1;" glyph-name="mail" d="M512 468.667l342 214h-684zM854 170.667v426l-342-212-342 212v-426h684zM854 768.667c46 0 84-40 84-86v-512c0-46-38-86-84-86h-684c-46 0-84 40-84 86v512c0 46 38 86 84 86h684z" />
<glyph unicode="&#xe3a1;" glyph-name="music" d="M512 810.667h298v-128h-170v-470h-2c-10-96-92-170-190-170-106 0-192 86-192 192s86 192 192 192c22 0 44-4 64-12v396z" />
<glyph unicode="&#xe408;" glyph-name="prev" d="M658 622.667l-196-196 196-196-60-60-256 256 256 256z" />
<glyph unicode="&#xe409;" glyph-name="next" d="M426 682.667l256-256-256-256-60 60 196 196-196 196z" />
<glyph unicode="&#xe850;" glyph-name="money" d="M682 362.667c36 0 64 28 64 64s-28 64-64 64-64-28-64-64 28-64 64-64zM512 256.667v340h426v-340h-426zM896 170.667v-42c0-46-40-86-86-86h-596c-48 0-86 40-86 86v596c0 46 38 86 86 86h596c46 0 86-40 86-86v-42h-384c-48 0-86-40-86-86v-340c0-46 38-86 86-86h384z" />
<glyph unicode="&#xe8b4;" glyph-name="room" d="M512 448.667c58 0 106 48 106 106s-48 106-106 106-106-48-106-106 48-106 106-106zM512 852.667c166 0 298-132 298-298 0-224-298-554-298-554s-298 330-298 554c0 166 132 298 298 298z" />
<glyph unicode="&#xe8cc;" glyph-name="shopping" d="M726 170.667c46 0 84-40 84-86s-38-84-84-84-86 38-86 84 40 86 86 86zM42 852.667h140l40-84h632c24 0 42-20 42-44 0-8-2-14-6-20l-152-276c-14-26-42-44-74-44h-318l-38-70-2-6c0-6 4-10 10-10h494v-86h-512c-46 0-84 40-84 86 0 14 4 28 10 40l58 106-154 324h-86v84zM298 170.667c46 0 86-40 86-86s-40-84-86-84-84 38-84 84 38 86 84 86z" />
<glyph unicode="&#xe8f1;" glyph-name="plan" d="M426 724.667h470v-256h-470v256zM682 170.667v256h214v-256h-214zM170 170.667v554h214v-554h-214zM426 170.667v256h214v-256h-214z" />
<glyph unicode="&#xe900;" glyph-name="moon" d="M788.256 250.112c-262.016 0-474.24 212.384-474.24 474.24 0 86.24 24.736 166.016 64.992 235.616-218.368-62.976-379.008-261.984-379.008-500.608 0-288.992 234.24-523.36 523.264-523.36 238.624 0 437.76 160.736 500.736 379.008-69.76-40.128-149.504-64.896-235.744-64.896z" />
<glyph unicode="&#xe901;" glyph-name="sun" d="M152 146.667l76 78 60-60-76-78zM470-19.333v126h84v-126h-84zM512 704.667c142 0 256-114 256-256s-114-256-256-256-256 114-256 256 114 256 256 256zM854 490.667h128v-86h-128v86zM736 164.667l60 58 76-76-60-60zM872 748.667l-76-76-60 60 76 76zM554 914.667v-126h-84v126h84zM170 490.667v-86h-128v86h128zM288 732.667l-60-60-76 76 60 60z" />
<glyph unicode="&#xe902;" glyph-name="phone" d="M282 478.667c62-120 162-220 282-282l94 94c12 12 30 16 44 10 48-16 100-24 152-24 24 0 42-18 42-42v-150c0-24-18-42-42-42-400 0-726 326-726 726 0 24 18 42 42 42h150c24 0 42-18 42-42 0-54 8-104 24-152 4-14 2-32-10-44z" />
<glyph unicode="&#xe903;" glyph-name="clock" d="M512 896c-258.667 0-469.333-210.667-469.333-469.333s210.667-469.333 469.333-469.333 469.333 210.667 469.333 469.333-210.667 469.333-469.333 469.333zM512 42.667c-211.733 0-384 172.267-384 384s172.267 384 384 384c211.733 0 384-172.267 384-384s-172.267-384-384-384zM554.667 444.267v238.4c0 23.467-19.2 42.667-42.667 42.667s-42.667-19.2-42.667-42.667v-256c0-11.2 4.533-22.133 12.533-30.133l128-128c8.267-8.267 19.2-12.533 30.133-12.533s21.867 4.267 30.133 12.533c16.533 16.533 16.533 43.733 0 60.267l-115.467 115.467z" />
<glyph unicode="&#xe922;" glyph-name="timeline" d="M982 596.667c0-46-40-84-86-84-8 0-16 0-22 2l-152-152c2-6 4-14 4-22 0-46-40-84-86-84s-86 38-86 84c0 8 2 16 4 22l-110 110c-6-2-14-4-22-4s-16 2-22 4l-194-194c2-6 4-14 4-22 0-46-40-86-86-86s-86 40-86 86 40 84 86 84c8 0 16 0 22-2l194 194c-2 6-2 14-2 22 0 46 38 86 84 86s86-40 86-86c0-8 0-16-2-22l108-108c6 2 14 2 22 2s16 0 22-2l152 150c-2 6-4 14-4 22 0 46 40 86 86 86s86-40 86-86z" />
<glyph unicode="&#xf099;" glyph-name="twitter" horiz-adv-x="951" d="M925.714 717.714c-25.143-36.571-56.571-69.143-92.571-95.429 0.571-8 0.571-16 0.571-24 0-244-185.714-525.143-525.143-525.143-104.571 0-201.714 30.286-283.429 82.857 14.857-1.714 29.143-2.286 44.571-2.286 86.286 0 165.714 29.143 229.143 78.857-81.143 1.714-149.143 54.857-172.571 128 11.429-1.714 22.857-2.857 34.857-2.857 16.571 0 33.143 2.286 48.571 6.286-84.571 17.143-148 91.429-148 181.143v2.286c24.571-13.714 53.143-22.286 83.429-23.429-49.714 33.143-82.286 89.714-82.286 153.714 0 34.286 9.143 65.714 25.143 93.143 90.857-112 227.429-185.143 380.571-193.143-2.857 13.714-4.571 28-4.571 42.286 0 101.714 82.286 184.571 184.571 184.571 53.143 0 101.143-22.286 134.857-58.286 41.714 8 81.714 23.429 117.143 44.571-13.714-42.857-42.857-78.857-81.143-101.714 37.143 4 73.143 14.286 106.286 28.571z" />
<glyph unicode="&#xf09a;" glyph-name="facebook, facebook-f" horiz-adv-x="602" d="M548 944v-150.857h-89.714c-70.286 0-83.429-33.714-83.429-82.286v-108h167.429l-22.286-169.143h-145.143v-433.714h-174.857v433.714h-145.714v169.143h145.714v124.571c0 144.571 88.571 223.429 217.714 223.429 61.714 0 114.857-4.571 130.286-6.857z" />
<glyph unicode="&#xf189;" glyph-name="vk" horiz-adv-x="1119" d="M1095.429 653.714c8.571-23.429-18.286-78.286-85.714-168-110.857-147.429-122.857-133.714-31.429-218.857 88-81.714 106.286-121.143 109.143-126.286 0 0 36.571-64-40.571-64.571l-146.286-2.286c-31.429-6.286-73.143 22.286-73.143 22.286-54.857 37.714-106.286 135.429-146.286 122.857 0 0-41.143-13.143-40-101.143 0.571-18.857-8.571-29.143-8.571-29.143s-10.286-10.857-30.286-12.571h-65.714c-144.571-9.143-272 124-272 124s-139.429 144-261.714 431.429c-8 18.857 0.571 28 0.571 28s8.571 10.857 32.571 10.857l156.571 1.143c14.857-2.286 25.143-10.286 25.143-10.286s9.143-6.286 13.714-18.286c25.714-64 58.857-122.286 58.857-122.286 57.143-117.714 96-137.714 118.286-125.714 0 0 29.143 17.714 22.857 160-2.286 51.429-16.571 74.857-16.571 74.857-13.143 17.714-37.714 22.857-48.571 24.571-8.571 1.143 5.714 21.714 24.571 30.857 28 13.714 77.714 14.286 136.571 13.714 46.286-0.571 59.429-3.429 77.143-7.429 54.286-13.143 36-63.429 36-184.571 0-38.857-7.429-93.143 20.571-110.857 12-8 41.714-1.143 114.857 123.429 0 0 34.286 59.429 61.143 128.571 4.571 12.571 14.286 17.714 14.286 17.714s9.143 5.143 21.714 3.429l164.571 1.143c49.714 6.286 57.714-16.571 57.714-16.571z" />
</font></defs></svg>